Final Project - Does “Home Court Advantage” Exist in the NBA
…
We chose to focus our primary analysis in a ten year period to get an ample sample size. We chose the 10 most recent years before and including 2018 since this was the last season where games were not affected by the COVID-19 pandemic, which affected game attendance by fans.

games <- games |>
  filter(SEASON >= 2009, SEASON <= 2018)
teams <- teams |>
  filter(SEASON >= 2009, SEASON <= 2018)

Our data sets are now ready for our analysis.

games

## # A tibble: 13,796 × 18
##    SEASON PTS_home FG_PCT_home FT_PCT_home FG3_PCT_home AST_home REB_home
##     <dbl>    <dbl>       <dbl>       <dbl>        <dbl>    <dbl>    <dbl>
##  1   2013      104       0.474       0.783        0.462       25       40
##  2   2013       86       0.451       0.65         0.409       13       27
##  3   2013       92       0.516       0.75         0.476       17       26
##  4   2013       96       0.439       0.6          0.462       26       37
##  5   2013      110       0.588       0.773        0.52        30       39
##  6   2013      107       0.427       0.879        0.296       19       45
##  7   2013      117       0.579       0.857        0.423       24       37
##  8   2013      117       0.513       0.867        0.5         23       48
##  9   2013       93       0.474       0.591        0.286       13       45
## 10   2013      105       0.487       0.774        0.438       22       42
## # … with 13,786 more rows, and 11 more variables: PTS_away <dbl>,
## #   FG_PCT_away <dbl>, FT_PCT_away <dbl>, FG3_PCT_away <dbl>, AST_away <dbl>,
## #   REB_away <dbl>, HOME_TEAM_WINS <dbl>, HOME_TEAM_ABB <chr>,
## #   VISITOR_TEAM_ABB <chr>, HOME_TEAM_NICKNAME <chr>,
## #   VISITOR_TEAM_NICKNAME <chr>

teams

## # A tibble: 27,592 × 12
##    SEASON   PTS FG_PCT FG3_PCT FT_PCT   AST   REB ABBREVIATION NICKNAME
##     <dbl> <dbl>  <dbl>   <dbl>  <dbl> <dbl> <dbl> <chr>        <chr>   
##  1   2013   104  0.474   0.462  0.783    25    40 SAS          Spurs   
##  2   2013    86  0.451   0.409  0.65     13    27 MIA          Heat    
##  3   2013    92  0.516   0.476  0.75     17    26 MIA          Heat    
##  4   2013    96  0.439   0.462  0.6      26    37 SAS          Spurs   
##  5   2013   110  0.588   0.52   0.773    30    39 SAS          Spurs   
##  6   2013   107  0.427   0.296  0.879    19    45 OKC          Thunder 
##  7   2013   117  0.579   0.423  0.857    24    37 MIA          Heat    
##  8   2013   117  0.513   0.5    0.867    23    48 SAS          Spurs   
##  9   2013    93  0.474   0.286  0.591    13    45 IND          Pacers  
## 10   2013   105  0.487   0.438  0.774    22    42 OKC          Thunder 
## # … with 27,582 more rows, and 3 more variables: HOME_TEAM_WINS <dbl>,
## #   HOME <lgl>, GAME_WIN <lgl>
…
